org\fasttrackit\Product.class
org\fasttrackit\WishlistPage.class
org\fasttrackit\CartPage.class
org\fasttrackit\ProductDetailsPage.class
org\fasttrackit\Footer.class
org\fasttrackit\Main.class
org\fasttrackit\Page.class
org\fasttrackit\DemoShopPage.class
org\fasttrackit\Header.class
org\fasttrackit\LoginModal.class
